Covid-19
…
2020-03-09

# new cases in latest data

coronavirus %>% 
  group_by( Country.Region, type) %>%
  filter(date == max(date)) %>%
  ungroup() %>%
  select(country = Country.Region, type, cases, date) %>%
  group_by(country, type) %>%
  summarise(total_cases = sum(cases), date=max(date)) %>%
  pivot_wider(names_from = type, values_from = total_cases) %>%
  arrange(-confirmed)

# A tibble: 143 x 5
# Groups:   country [143]
   country        date       confirmed death recovered
   <chr>          <date>         <int> <int>     <int>
 1 Italy          2020-03-14      3497   175       527
 2 Iran           2020-03-14      1365    97         0
 3 Spain          2020-03-14      1159    62       324
 4 Germany        2020-03-14       910     2         0
 5 France         2020-03-14       813    12         0
 6 US             2020-03-14       548     7         0
 7 United Kingdom 2020-03-14       342    13         0
 8 Switzerland    2020-03-14       220     2         0
 9 Netherlands    2020-03-14       155     2         2
10 Austria        2020-03-14       151     0         0
# … with 133 more rows
…
